Semana 02- code sessions
…
# Transforma la data generando una columna para los estimados y otra para los margenes de error
us_rent_income %>%
  pivot_wider(names_from = variable,         # La variable con las categorias que vas a individualizar 
              values_from = c(estimate, moe) # La(s) variable(s) que tienen los valores a repartir entre las nuevas columnas
              ) 

## # A tibble: 52 x 6
##    GEOID NAME                 estimate_income estimate_rent moe_income moe_rent
##    <chr> <chr>                          <dbl>         <dbl>      <dbl>    <dbl>
##  1 01    Alabama                        24476           747        136        3
##  2 02    Alaska                         32940          1200        508       13
##  3 04    Arizona                        27517           972        148        4
##  4 05    Arkansas                       23789           709        165        5
##  5 06    California                     29454          1358        109        3
##  6 08    Colorado                       32401          1125        109        5
##  7 09    Connecticut                    35326          1123        195        5
##  8 10    Delaware                       31560          1076        247       10
##  9 11    District of Columbia           43198          1424        681       17
## 10 12    Florida                        25952          1077         70        3
## # ... with 42 more rows
…
