Workshop 11
…
# Resultados
# asi podemos extraer un data.frame con los coeficientes resultantes de la mejor estimacion
chosen_variables<-enframe(glmnet::coef.glmnet(fit_lasso, s="lambda.min")[,1])

chosen_variables %>% 
  filter(value!=0) %>% 
  arrange(desc(value))

## # A tibble: 27 x 2
##    name                           value
##    <chr>                          <dbl>
##  1 Exterior_1stPreCast            1.97 
##  2 Overall_QualExcellent          1.90 
##  3 Overall_QualVery_Good          1.31 
##  4 NeighborhoodNorthridge         1.31 
##  5 Bsmt_Full_Bath                 0.583
##  6 NeighborhoodNorthridge_Heights 0.541
##  7 Fireplaces                     0.423
##  8 Bsmt_ExposureGd                0.415
##  9 Land_ContourLow                0.398
## 10 Pool_QCGood                    0.309
## # ... with 17 more rows
…
